{
  "compilerOptions": {
    "checkJs": true,
    "jsx": "react",
    "noImplicitAny": false,
    "skipLibCheck": true,
    "resolveJsonModule": true,
    "baseUrl": "./",
    "paths": {
      "~/*": ["src/*"]
    }
  },
  "include": ["src/", "jsconfig.json", "server"],
  "exclude": ["node_modules", "**/node_modules/*"]
}
